,date,city,rent,product
0,2022-01-01,Iğdır,3,1018
1,2022-01-02,Uşak,11,1234
2,2022-01-03,Afyon,13,1889
3,2022-01-04,Edirne,4,1778
4,2022-01-05,Kars,15,1146
5,2022-01-06,Rize,10,1059
6,2022-01-07,Van,1,1061
7,2022-01-08,Tokat,17,1696
8,2022-01-09,Afyon,7,1214
9,2022-01-10,Aksaray,8,1094
10,2022-01-11,Kayseri,10,1202
11,2022-01-12,Bolu,2,1690
12,2022-01-13,Erzurum,15,1128
13,2022-01-14,Kırşehir,17,1436
14,2022-01-15,Bursa,14,1274
15,2022-01-16,Çankırı,12,1962
16,2022-01-17,Adıyaman,5,1568
17,2022-01-18,Muğla,5,1081
18,2022-01-19,Düzce,15,1102
19,2022-01-20,Ordu,14,1556
20,2022-01-21,Aydın,14,1149
21,2022-01-22,Kırklareli,3,1648
22,2022-01-23,Isparta,10,1616
23,2022-01-24,Tekirdağ,6,1225
24,2022-01-25,Şırnak,8,1084
25,2022-01-26,Afyon,4,1700
26,2022-01-27,Bingöl,16,1734
27,2022-01-28,Bartın,7,1984
28,2022-01-29,Muş,15,1313
29,2022-01-30,Çanakkale,4,1894
30,2022-01-31,Bayburt,14,1609
31,2022-02-01,Bursa,12,1222
32,2022-02-02,İçel (Mersin),7,1675
33,2022-02-03,Kırıkkale,1,1360
34,2022-02-04,İzmir,4,1122
35,2022-02-05,Denizli,13,1473
36,2022-02-06,Manisa,3,1314
37,2022-02-07,Sinop,11,1294
38,2022-02-08,Tekirdağ,2,1285
39,2022-02-09,Bitlis,11,1102
40,2022-02-10,Ardahan,7,1078
41,2022-02-11,Amasya,9,1703
42,2022-02-12,Karabük,17,1934
43,2022-02-13,Karaman,8,1543
44,2022-02-14,Isparta,8,1402
45,2022-02-15,Tokat,6,1207
46,2022-02-16,Ardahan,7,1227
47,2022-02-17,Tunceli,7,1953
48,2022-02-18,Çankırı,12,1104
49,2022-02-19,Burdur,1,1039
50,2022-02-20,Batman,8,1965
51,2022-02-21,Muğla,8,1693
52,2022-02-22,Muş,14,1044
53,2022-02-23,Bolu,9,1774
54,2022-02-24,Konya,9,1975
55,2022-02-25,Edirne,12,1329
56,2022-02-26,Bursa,10,1872
57,2022-02-27,Amasya,17,1404
58,2022-02-28,Kayseri,4,1139
59,2022-03-01,Diyarbakır,10,1532
60,2022-03-02,Yozgat,6,1716
61,2022-03-03,Bitlis,7,1416
62,2022-03-04,Balıkesir,8,1957
63,2022-03-05,Denizli,6,1221
64,2022-03-06,Ağrı,11,1412
65,2022-03-07,Yalova,10,1921
66,2022-03-08,İçel (Mersin),4,1880
67,2022-03-09,Bartın,8,1831
68,2022-03-10,Kilis,5,1269
69,2022-03-11,Çanakkale,7,1803
70,2022-03-12,Bingöl,8,1434
71,2022-03-13,Karaman,8,1960
72,2022-03-14,Kilis,12,1374
73,2022-03-15,Tokat,6,1103
74,2022-03-16,Kilis,16,1964
75,2022-03-17,Balıkesir,3,1708
76,2022-03-18,Hakkari,4,1591
77,2022-03-19,Gaziantep,11,1597
78,2022-03-20,Burdur,7,1923
79,2022-03-21,Kırıkkale,8,1932
80,2022-03-22,Sinop,1,1681
81,2022-03-23,Adana,2,1835
82,2022-03-24,Sakarya,8,1890
83,2022-03-25,Muğla,16,1730
84,2022-03-26,Amasya,7,1163
85,2022-03-27,Bitlis,17,1661
86,2022-03-28,Bitlis,6,1728
87,2022-03-29,Çorum,11,1515
88,2022-03-30,Karaman,8,1263
89,2022-03-31,Kars,5,1431
90,2022-04-01,Erzurum,2,1632
91,2022-04-02,Bilecik,11,1224
92,2022-04-03,Bilecik,8,1349
93,2022-04-04,Bartın,6,1912
94,2022-04-05,Elazığ,7,1194
95,2022-04-06,Isparta,6,1846
96,2022-04-07,Aksaray,5,1823
97,2022-04-08,Aydın,2,1152
98,2022-04-09,Van,3,1860
99,2022-04-10,Ankara,1,1910
100,2022-04-11,Muğla,7,1238
101,2022-04-12,Ağrı,8,1234
102,2022-04-13,Bartın,7,1013
103,2022-04-14,İzmir,8,1968
104,2022-04-15,Niğde,16,1866
105,2022-04-16,Tekirdağ,13,1775
106,2022-04-17,Osmaniye,14,1585
107,2022-04-18,Aksaray,6,1275
108,2022-04-19,Ordu,14,1297
109,2022-04-20,Uşak,9,1333
110,2022-04-21,Kırşehir,9,1729
111,2022-04-22,Afyon,17,1348
112,2022-04-23,Malatya,7,1684
113,2022-04-24,Çankırı,8,1879
114,2022-04-25,Yozgat,2,1886
115,2022-04-26,Erzincan,6,1769
116,2022-04-27,Kastamonu,17,1792
117,2022-04-28,Yozgat,7,1600
118,2022-04-29,Ağrı,1,1423
119,2022-04-30,Çanakkale,3,1505
120,2022-05-01,Şırnak,9,1291
121,2022-05-02,Karabük,14,1209
122,2022-05-03,Bilecik,2,1907
123,2022-05-04,Karabük,8,1486
124,2022-05-05,Yozgat,2,1599
125,2022-05-06,Iğdır,12,1266
126,2022-05-07,Tekirdağ,15,1294
127,2022-05-08,Tokat,2,1206
128,2022-05-09,Kırşehir,6,1630
129,2022-05-10,Şanlıurfa,15,1154
130,2022-05-11,Zonguldak,3,1838
131,2022-05-12,Yozgat,11,1461
132,2022-05-13,Eskişehir,4,1123
133,2022-05-14,Iğdır,15,1597
134,2022-05-15,Hatay,4,1799
135,2022-05-16,Siirt,4,1815
136,2022-05-17,Osmaniye,9,1365
137,2022-05-18,Eskişehir,17,1127
138,2022-05-19,Gaziantep,10,1547
139,2022-05-20,Sivas,11,1867
140,2022-05-21,Çankırı,14,1038
141,2022-05-22,Düzce,12,1615
142,2022-05-23,Hatay,13,1346
143,2022-05-24,Hatay,17,1066
144,2022-05-25,Antalya,4,1789
145,2022-05-26,Bingöl,15,1653
146,2022-05-27,Manisa,4,1988
147,2022-05-28,Burdur,11,1269
148,2022-05-29,Nevşehir,9,1494
149,2022-05-30,Hakkari,11,1063
150,2022-05-31,Kocaeli,5,1627
151,2022-06-01,Malatya,4,1599
152,2022-06-02,Osmaniye,6,1301
153,2022-06-03,Eskişehir,9,1371
154,2022-06-04,Bayburt,10,1735
155,2022-06-05,Karabük,2,1116
156,2022-06-06,Ankara,16,1198
157,2022-06-07,Aksaray,17,1846
158,2022-06-08,Sivas,17,1351
159,2022-06-09,Isparta,6,1311
160,2022-06-10,Sakarya,17,1315
161,2022-06-11,Muğla,11,1523
162,2022-06-12,Ordu,9,1500
163,2022-06-13,Bayburt,12,1333
164,2022-06-14,Denizli,3,1272
165,2022-06-15,Kahramanmaraş,11,1169
166,2022-06-16,Kahramanmaraş,3,1521
167,2022-06-17,Hatay,8,1215
168,2022-06-18,Yalova,9,1485
169,2022-06-19,Adana,16,1381
170,2022-06-20,Iğdır,4,1001
171,2022-06-21,Erzurum,2,1150
172,2022-06-22,Trabzon,12,1972
173,2022-06-23,Van,6,1944
174,2022-06-24,Eskişehir,16,1859
175,2022-06-25,Şanlıurfa,11,1091
176,2022-06-26,Erzurum,10,1284
177,2022-06-27,Muğla,15,1439
178,2022-06-28,Malatya,11,1311
179,2022-06-29,Bolu,15,1025
180,2022-06-30,Adıyaman,2,1947
181,2022-07-01,Balıkesir,11,1271
182,2022-07-02,Erzurum,7,1077
183,2022-07-03,Diyarbakır,12,1464
184,2022-07-04,Çanakkale,9,1267
185,2022-07-05,Muş,12,1312
186,2022-07-06,Siirt,5,1191
187,2022-07-07,Yalova,1,1875
188,2022-07-08,Bayburt,9,1959
189,2022-07-09,Van,12,1332
190,2022-07-10,Şanlıurfa,5,1507
191,2022-07-11,Tunceli,15,1179
192,2022-07-12,Karaman,3,1204
193,2022-07-13,Bilecik,8,1609
194,2022-07-14,Eskişehir,12,1643
195,2022-07-15,Rize,2,1874
196,2022-07-16,Bayburt,4,1241
197,2022-07-17,Hakkari,16,1891
198,2022-07-18,Elazığ,8,1782
199,2022-07-19,Muş,8,1005
200,2022-07-20,Yozgat,16,1543
201,2022-07-21,Malatya,12,1018
202,2022-07-22,Siirt,5,1591
203,2022-07-23,Bursa,2,1374
204,2022-07-24,Osmaniye,11,1600
205,2022-07-25,Gümüşhane,12,1035
206,2022-07-26,Muş,6,1917
207,2022-07-27,Bingöl,1,1416
208,2022-07-28,Gümüşhane,13,1161
209,2022-07-29,Muş,4,1946
210,2022-07-30,İzmir,7,1250
211,2022-07-31,Isparta,14,1523
212,2022-08-01,Gümüşhane,1,1685
213,2022-08-02,Tunceli,8,1568
214,2022-08-03,Karaman,1,1926
215,2022-08-04,Hatay,3,1883
216,2022-08-05,Sakarya,14,1575
217,2022-08-06,İçel (Mersin),17,1028
218,2022-08-07,Şırnak,17,1843
219,2022-08-08,Ordu,17,1169
220,2022-08-09,Iğdır,16,1947
221,2022-08-10,Tunceli,13,1837
222,2022-08-11,Osmaniye,15,1552
223,2022-08-12,Kastamonu,5,1951
224,2022-08-13,Isparta,8,1336
225,2022-08-14,Aksaray,1,1035
226,2022-08-15,Amasya,9,1307
227,2022-08-16,Diyarbakır,12,1742
228,2022-08-17,Bilecik,5,1232
229,2022-08-18,Bayburt,1,1758
230,2022-08-19,Nevşehir,12,1432
231,2022-08-20,Trabzon,4,1972
232,2022-08-21,Bingöl,17,1727
233,2022-08-22,Denizli,16,1506
234,2022-08-23,Antalya,5,1657
235,2022-08-24,Gaziantep,1,1731
236,2022-08-25,Bolu,10,1908
237,2022-08-26,Manisa,11,1414
238,2022-08-27,Sivas,17,1646
239,2022-08-28,Şanlıurfa,1,1746
240,2022-08-29,Tunceli,17,1720
241,2022-08-30,Kırşehir,17,1988
242,2022-08-31,Adana,8,1673
243,2022-09-01,Karaman,10,1731
244,2022-09-02,Adana,13,1523
245,2022-09-03,Bartın,10,1436
246,2022-09-04,Bartın,13,1541
247,2022-09-05,Bartın,15,1837
248,2022-09-06,Bitlis,17,1290
249,2022-09-07,Malatya,4,1641
250,2022-09-08,Şanlıurfa,11,1205
251,2022-09-09,Zonguldak,6,1282
252,2022-09-10,Bingöl,16,1909
253,2022-09-11,Çorum,8,1174
254,2022-09-12,Trabzon,9,1667
255,2022-09-13,Bolu,3,1467
256,2022-09-14,Şırnak,3,1279
257,2022-09-15,Nevşehir,4,1115
258,2022-09-16,Bartın,16,1492
259,2022-09-17,Çorum,8,1775
260,2022-09-18,Edirne,11,1950
261,2022-09-19,İstanbul,6,1984
262,2022-09-20,Denizli,12,1206
263,2022-09-21,Kırıkkale,4,1626
264,2022-09-22,Adana,4,1083
265,2022-09-23,Kırşehir,14,1139
266,2022-09-24,Çanakkale,16,1709
267,2022-09-25,Edirne,1,1563
268,2022-09-26,Aydın,2,1456
269,2022-09-27,Karabük,3,1746
270,2022-09-28,Tokat,14,1454
271,2022-09-29,Kırşehir,15,1009
272,2022-09-30,Çanakkale,5,1326
273,2022-10-01,Eskişehir,11,1327
274,2022-10-02,Diyarbakır,17,1019
275,2022-10-03,Karaman,9,1812
276,2022-10-04,Adıyaman,17,1933
277,2022-10-05,Amasya,1,1277
278,2022-10-06,Yozgat,17,1938
279,2022-10-07,Tunceli,4,1722
280,2022-10-08,Malatya,17,1830
281,2022-10-09,Çankırı,12,1138
282,2022-10-10,Kilis,16,1610
283,2022-10-11,Edirne,3,1157
284,2022-10-12,Erzurum,11,1090
285,2022-10-13,Karabük,11,1819
286,2022-10-14,Çorum,6,1503
287,2022-10-15,Zonguldak,17,1882
288,2022-10-16,Elazığ,1,1179
289,2022-10-17,Iğdır,9,1403
290,2022-10-18,Kastamonu,17,1571
291,2022-10-19,Bartın,6,1815
292,2022-10-20,Sivas,11,1371
293,2022-10-21,Nevşehir,14,1050
294,2022-10-22,Bilecik,13,1686
295,2022-10-23,Tunceli,1,1107
296,2022-10-24,Sinop,13,1277
297,2022-10-25,Gaziantep,8,1288
298,2022-10-26,Isparta,17,1905
299,2022-10-27,Konya,7,1595
300,2022-10-28,Nevşehir,16,1542
301,2022-10-29,Hatay,2,1909
302,2022-10-30,Isparta,2,1381
303,2022-10-31,Kütahya,13,1494
304,2022-11-01,Tekirdağ,5,1140
305,2022-11-02,Bartın,3,1262
306,2022-11-03,Bingöl,10,1501
307,2022-11-04,Şanlıurfa,3,1644
308,2022-11-05,Niğde,15,1022
309,2022-11-06,Düzce,5,1770
310,2022-11-07,Malatya,8,1287
311,2022-11-08,Rize,8,1816
312,2022-11-09,Nevşehir,13,1837
313,2022-11-10,Balıkesir,11,1058
314,2022-11-11,Bilecik,16,1088
315,2022-11-12,Rize,13,1517
316,2022-11-13,Konya,15,1461
317,2022-11-14,Sinop,8,1264
318,2022-11-15,Niğde,1,1257
319,2022-11-16,Rize,2,1387
320,2022-11-17,Kocaeli,6,1403
321,2022-11-18,Manisa,10,1375
322,2022-11-19,Mardin,14,1007
323,2022-11-20,Sakarya,12,1218
324,2022-11-21,Şanlıurfa,15,1681
325,2022-11-22,Karaman,6,1019
326,2022-11-23,Mardin,15,1142
327,2022-11-24,Malatya,6,1518
328,2022-11-25,Karaman,8,1642
329,2022-11-26,Zonguldak,8,1885
330,2022-11-27,Çanakkale,9,1849
331,2022-11-28,Uşak,11,1545
332,2022-11-29,Siirt,6,1650
333,2022-11-30,Bayburt,7,1518
334,2022-12-01,Ankara,2,1433
335,2022-12-02,Hatay,7,1023
336,2022-12-03,Edirne,1,1151
337,2022-12-04,Artvin,10,1506
338,2022-12-05,Manisa,6,1365
339,2022-12-06,Çanakkale,17,1922
340,2022-12-07,Aksaray,11,1689
341,2022-12-08,Bolu,2,1814
342,2022-12-09,Trabzon,17,1275
343,2022-12-10,İstanbul,2,1919
344,2022-12-11,Amasya,6,1700
345,2022-12-12,Aydın,16,1717
346,2022-12-13,Bingöl,10,1582
347,2022-12-14,Konya,15,1794
348,2022-12-15,Zonguldak,1,1372
349,2022-12-16,Eskişehir,2,1426
350,2022-12-17,Gümüşhane,1,1622
351,2022-12-18,Bayburt,9,1359
352,2022-12-19,İçel (Mersin),5,1274
353,2022-12-20,Çankırı,7,1317
354,2022-12-21,Şanlıurfa,1,1474
355,2022-12-22,Kırşehir,14,1044
356,2022-12-23,Giresun,16,1567
357,2022-12-24,Kırklareli,7,1719
358,2022-12-25,Balıkesir,12,1394
359,2022-12-26,Muş,11,1663
360,2022-12-27,Kahramanmaraş,10,1241
361,2022-12-28,Bursa,14,1491
362,2022-12-29,Bitlis,15,1822
363,2022-12-30,Bursa,13,1441
